{
  "page": 1,
  "total_pages": 6,
  "total_results": 108,
  "results": [
    {
      "adult": false,
      "backdrop_path": "/yY76zq9XSuJ4nWyPDuwkdV7Wt0c.jpg",
      "genre_ids": [28, 53, 878],
      "id": 577922,
      "original_language": "en",
      "original_title": "Tenet",
      "overview": "Armed with only one word - Tenet - and fighting for the survival of the entire world, the Protagonist journeys through a twilight world of international espionage on a mission that will unfold in something beyond real time.",
      "popularity": 131.963,
      "poster_path": "/oh8XmxWlySHgGLlx8QOBmq9k72j.jpg",
      "release_date": "2020-08-22",
      "title": "Tenet",
      "video": false,
      "vote_average": 7.2,
      "vote_count": 6664
    },
    {
      "adult": false,
      "backdrop_path": null,
      "genre_ids": [99],
      "id": 790331,
      "original_language": "en",
      "original_title": "Looking at the World in a New Way: The Making of Tenet",
      "overview": "A look behind the scenes of Christopher Nolan's Tenet.",
      "popularity": 5.875,
      "poster_path": "/b9lN2oIudGQt6AVeWnqovxjedQy.jpg",
      "release_date": "2020-12-15",
      "title": "Looking at the World in a New Way: The Making of Tenet",
      "video": false,
      "vote_average": 7.5,
      "vote_count": 2
    },
    {
      "adult": false,
      "backdrop_path": null,
      "genre_ids": [10402],
      "id": 423297,
      "original_language": "pt",
      "original_title": "Princípio (Ao Vivo)",
      "overview": "The new Leonardo Gonçalves's DVD is sophisticated, inspirational and with much unction. Princípio is the first Leonardo Gonçalves's DVD recorded live, in São Paulo. Leonardo presents in this work a setlist consisting of songs from their four albums career, plus unreleased songs and an amazing production, which had only 4 musicians in the show. The work includes appearances by his wife Daniela Araujo and musician Eduardo Tambasco.",
      "popularity": 0.6,
      "poster_path": null,
      "title": "Tenet Live",
      "video": true,
      "vote_average": 9,
      "vote_count": 1
    }
  ]
}
